\relax 
\@writefile{toc}{\contentsline {section}{\numberline {1}Derivation of conservation equations}{1}\protected@file@percent }
\@writefile{toc}{\contentsline {subsection}{\numberline {1.1}Mass conservation (continuity equation)}{1}\protected@file@percent }
\@writefile{toc}{\contentsline {subsection}{\numberline {1.2}Momentum equation}{1}\protected@file@percent }
\@writefile{toc}{\contentsline {subsection}{\numberline {1.3}Substitute shear stresses}{2}\protected@file@percent }
\@writefile{toc}{\contentsline {section}{\numberline {2}Convection-diffusion equation}{2}\protected@file@percent }
